{
    "enableThreading":true, # Boolean
    "useMultipleBackgroundsAndStars":true, # Boolean
    "useCustomFactionConfigs":true, # Boolean

    "randomOmnifactoryLocation":false, # Boolean

    "minimumPlanets": 3, # Integer
    "minimumStations": 3, # Integer
    "minimumAsteroidBelts": 0, # Integer

    "reduceSupplies":true, # Boolean
    "capSupplyDropToCargo":true, # Boolean, only used if reduceSupplies is true, cap = cargo*1.5
    "reduceSuppliesFactor":1.0, # Double, only used if reduceSupplies is true, applied after cap to cargo

    "asteroidMiningResource": "supplies", # String
    "gasgiantMiningResource": "fuel", # String
    "fleetCostResource": "supplies", # String
    "miningAmountPerDayPerMiner": 50, # Integer

    "playerBaseSalary": 5000, # Double
    "playerSalaryIncrementPerLevel": 1000, # Double
    "playerFactionFreeTransfer":false, # Boolean, DOESN'T WORK UNTIL FREETRANSFER IS FIXED

    "validBoardingFlagships":["atlas", "mazerk", "neerin", "thule_hansa", "qua_cesall", "zorg_auxiliary", "neutrino_nausicaa", "neutrino_nausicaa2", "ori_butterflier", "brdy_eschaton", "sun_ice_shalom"], # String array
    "validTroopTransportShips":["valkyrie", "hadd_stonehead", "bushi_sangu", "hii_saari", "zorg_auxiliary", "qua_yidato", "cane", "ms_potnia", "pb_vanghentmk2", "pn_valkyrie", "sun_ice_shalom", "SCY_hydra"], # String array
    "validMiningShips":["mining_drone", "zorg_sphere", "pn_mlmv"], # String array

    "builtInFactions":["hegemony", "tritachyon", "sindrian_diktat", "luddic_church", "pirates"], # String array
    "supportedModFactions":["batavia", "blackrock_driveyards", "bushi", "citadeldefenders", "dstech", "gedune", "hiigaran_descendants", "insurgency", "interstellarFederation", "junk_pirates", "mayorate", "neutrinocorp", "nomads", "ori", "rori", "pack", "patnavy", "pn", "regime", "shadow_industry", "syndicate_asp", "valkyrian", "zorg", "relics", "BGE", "qualljom", "scavengers", "sun_ice", "exigency", "exipirated", "interstellarimperium", "eleutheria", "SCY", "lotus_pirates", "diableavionics", "crystanite", "templars"], # String array
}