id,trigger,conditions,script,text,options,notes
# START NGC OPTIONS,,,,,,
onNewGameCreationStart,BeginNewGameCreation,,"$isInIntro = true 0
$introPage = 1.0 0
FireBest ExerelinNGCIntroPage",,,
,,,,,,
ExerelinNGCIntroNextPage,NewGameOptionSelected,$option==exerelinNGCIntroNextPage,"$introPage++
FireBest ExerelinNGCIntroPage",,,
ExerelinNGCIntroPrevPage,NewGameOptionSelected,$option==exerelinNGCIntroPrevPage,"$introPage--
FireBest ExerelinNGCIntroPage",,,
#introPage needs to be a float,,,,,,
ExerelinNGCIntro1,ExerelinNGCIntroPage,"$introPage == 1.0
$isInIntro",,"Welcome to the Exerelin mod for Starsector!

Exerelin is essentially a 4X game set in a corner of the Starsector universe. Factions within the sector will wage war, create alliances and compete to control a greater share of the sector.

Exerelin is compatible with a large number of community made faction mods, which you can add for a more varied gameplay experience.","exerelinNGCIntroNextPage:Next
exerelinNGCIntroEnd:Skip",
ExerelinNGCIntro2,ExerelinNGCIntroPage,"$introPage == 2.0
$isInIntro",,"Your actions will gain/lose you influence with the factions in the Sector. The higher your influence with a faction, the greater access to their support and technology you will have.

At the start of the game, you pick a faction to join. You are a representative of your chosen faction, and your actions in the Sector will reflect on them.

At present, you cannot change your faction or attempt to go it alone in Exerelin.","exerelinNGCIntroNextPage:Next
exerelinNGCIntroPrevPage:Previous
exerelinNGCIntroEnd:Skip",
ExerelinNGCIntro3,ExerelinNGCIntroPage,"$introPage == 3.0
$isInIntro",,Have fun and please leave any feedback on the Starsector forums :),"exerelinNGCIntroEnd:Start playing
exerelinNGCIntroPrevPage:Previous",
ExerelinNGCIntroEnd,NewGameOptionSelected,$option==exerelinNGCIntroEnd,"$isInIntro = false
FireAll ExerelinNGCStep1",,,
,,,,,,
,,,,,,
ExerelinNewGameOptionsEnter,ExerelinNGCStep1,,"NGCGetExerelinDefaults
FireAll ExerelinNGCOptions",Configure the Exerelin cluster?,,"make sure this runs once per new game, so that Exerelin sector generation data is set up properly"
ExerelinNewGameOptionsBackToMain,NewGameOptionSelected,$option==exerelinNGCOptionsBack,FireAll ExerelinNGCOptions,,,
ExerelinNewGameOptionsPopulate,ExerelinNGCOptions,,,,"exerelinNGCOptionsDone:Proceed
exerelinNGCSetNumSystems:Set number of star systems ($numSystems)
exerelinNGCSetMaxPlanets:Set max planets per system ($maxPlanets)
exerelinNGCSetMaxStations:Set max stations per system ($maxStations)
exerelinNGCOtherOptions:Other options",
ExerelinNewGameChoicesDev,ExerelinNGCOptions,$global.isDevMode,,,100:exerelinNGCDevStart:>> (dev) quick start,
ExerelinNewGameOptionsDone,NewGameOptionSelected,$option==exerelinNGCOptionsDone,FireBest ExerelinNGCStep2,,,
,,,,,,
ExerelinNGCNumStarSystemsMenu,NewGameOptionSelected,$option==exerelinNGCSetNumSystems,,,"exerelinNGCNumSystems1:One
exerelinNGCNumSystems2:Two
exerelinNGCNumSystems4:Four
exerelinNGCNumSystems6:Six
exerelinNGCNumSystems8:Eight
exerelinNGCNumSystems10:Ten
exerelinNGCOptionsBack:Back",
ExerelinNGCNumSystems1,NewGameOptionSelected,$option==exerelinNGCNumSystems1,"NGCSetNumSystems 1
AddText ""Set number of star systems to 1"" textFriendColor
FireAll ExerelinNGCOptions",,,
ExerelinNGCNumSystems2,NewGameOptionSelected,$option==exerelinNGCNumSystems2,"NGCSetNumSystems 2
AddText ""Set number of star systems to 2"" textFriendColor
FireAll ExerelinNGCOptions",,,
ExerelinNGCNumSystems4,NewGameOptionSelected,$option==exerelinNGCNumSystems4,"NGCSetNumSystems 4
AddText ""Set number of star systems to 4"" textFriendColor
FireAll ExerelinNGCOptions",,,
ExerelinNGCNumSystems6,NewGameOptionSelected,$option==exerelinNGCNumSystems6,"NGCSetNumSystems 6
AddText ""Set number of star systems to 6"" textFriendColor
FireAll ExerelinNGCOptions",,,
ExerelinNGCNumSystems8,NewGameOptionSelected,$option==exerelinNGCNumSystems8,"NGCSetNumSystems 8
AddText ""Set number of star systems to 8"" textFriendColor
FireAll ExerelinNGCOptions",,,
ExerelinNGCNumSystems10,NewGameOptionSelected,$option==exerelinNGCNumSystems10,"NGCSetNumSystems 10
AddText ""Set number of star systems to 10"" textFriendColor
FireAll ExerelinNGCOptions",,,
,,,,,,
ExerelinNGCMaxPlanetsMenu,NewGameOptionSelected,$option==exerelinNGCSetMaxPlanets,,,"exerelinNGCMaxPlanets2:Two
exerelinNGCMaxPlanets3:Three
exerelinNGCMaxPlanets4:Four
exerelinNGCMaxPlanets5:Five
exerelinNGCMaxPlanets6:Six
exerelinNGCMaxPlanets8:Eight
exerelinNGCOptionsBack:Back",
ExerelinNGCMaxPlanets2,NewGameOptionSelected,$option==exerelinNGCMaxPlanets2,"NGCSetMaxPlanets 2
AddText ""Set maximum planets per system to 2"" textFriendColor
FireAll ExerelinNGCOptions",,,
ExerelinNGCMaxPlanets3,NewGameOptionSelected,$option==exerelinNGCMaxPlanets3,"NGCSetMaxPlanets 3
AddText ""Set maximum planets per system to 3"" textFriendColor
FireAll ExerelinNGCOptions",,,
ExerelinNGCMaxPlanets4,NewGameOptionSelected,$option==exerelinNGCMaxPlanets4,"NGCSetMaxPlanets 4
AddText ""Set maximum planets per system to 4"" textFriendColor
FireAll ExerelinNGCOptions",,,
ExerelinNGCMaxPlanets5,NewGameOptionSelected,$option==exerelinNGCMaxPlanets5,"NGCSetMaxPlanets 5
AddText ""Set maximum planets per system to 5"" textFriendColor
FireAll ExerelinNGCOptions",,,
ExerelinNGCMaxPlanets6,NewGameOptionSelected,$option==exerelinNGCMaxPlanets6,"NGCSetMaxPlanets 6
AddText ""Set maximum planets per system to 6"" textFriendColor
FireAll ExerelinNGCOptions",,,
ExerelinNGCMaxPlanets8,NewGameOptionSelected,$option==exerelinNGCMaxPlanets8,"NGCSetMaxPlanets 8
AddText ""Set maximum planets per system to 8"" textFriendColor
FireAll ExerelinNGCOptions",,,
,,,,,,
ExerelinNGCMaxStationsMenu,NewGameOptionSelected,$option==exerelinNGCSetMaxStations,,,"exerelinNGCMaxStations1:One
exerelinNGCMaxStations2:Two
exerelinNGCMaxStations3:Three
exerelinNGCMaxStations4:Four
exerelinNGCMaxStations5:Five
exerelinNGCOptionsBack:Back",there should be an option for zero stations but it fails atm
ExerelinNGCMaxStations0,NewGameOptionSelected,$option==exerelinNGCMaxStations0,"NGCSetMaxStations 0
AddText ""Set maximum stations per system to 0"" textFriendColor
FireAll ExerelinNGCOptions",,,
ExerelinNGCMaxStations1,NewGameOptionSelected,$option==exerelinNGCMaxStations1,"NGCSetMaxStations 1
AddText ""Set maximum stations per system to 1"" textFriendColor
FireAll ExerelinNGCOptions",,,
ExerelinNGCMaxStations2,NewGameOptionSelected,$option==exerelinNGCMaxStations2,"NGCSetMaxStations 2
AddText ""Set maximum stations per system to 2"" textFriendColor
FireAll ExerelinNGCOptions",,,
ExerelinNGCMaxStations3,NewGameOptionSelected,$option==exerelinNGCMaxStations3,"NGCSetMaxStations 3
AddText ""Set maximum stations per system to 3"" textFriendColor
FireAll ExerelinNGCOptions",,,
ExerelinNGCMaxStations4,NewGameOptionSelected,$option==exerelinNGCMaxStations4,"NGCSetMaxStations 4
AddText ""Set maximum stations per system to 4"" textFriendColor
FireAll ExerelinNGCOptions",,,
ExerelinNGCMaxStations5,NewGameOptionSelected,$option==exerelinNGCMaxStations5,"NGCSetMaxStations 5
AddText ""Set maximum stations per system to 5"" textFriendColor
FireAll ExerelinNGCOptions",,,
,,,,,,
ExerelinNGCOtherOptionsMenu,NewGameOptionSelected,$option==exerelinNGCOtherOptions,FireAll ExerelinNGCOtherOptions,,,
ExerelinNGCListOptionEnableOmnifactory,ExerelinNGCOtherOptions,!IsOmnifacEnabled,,,exerelinNGCEnableOmnifactory:Enable Omnifactory,
ExerelinNGCListOptionDisableOmnifactory,ExerelinNGCOtherOptions,IsOmnifacEnabled,,,exerelinNGCDisableOmnifactory:Disable Omnifactory,
ExerelinNGCListOptionSetRandomOmnifactoryLocation,ExerelinNGCOtherOptions,"IsOmnifacEnabled
!IsOmnifacLocationRandomized",,,exerelinNGCSetOmnifactoryRandomLocation:Enable random location for Omnifactory,
ExerelinNGCListOptionUnsetRandomOmnifactoryLocation,ExerelinNGCOtherOptions,"IsOmnifacEnabled
IsOmnifacLocationRandomized",,,exerelinNGCUnsetOmnifactoryRandomLocation:Disable random location for Omnifactory,
ExerelinNGCOtherOptionsBack,ExerelinNGCOtherOptions,,,,10:exerelinNGCOptionsBack:Back,
,,,,,,
ExerelinNGCEnableOmnifactory,NewGameOptionSelected,$option==exerelinNGCEnableOmnifactory,"NGCSetOmnifacEnabled true
FireAll ExerelinNGCOtherOptions",,,
ExerelinNGCDisableOmnifactory,NewGameOptionSelected,$option==exerelinNGCDisableOmnifactory,"NGCSetOmnifacEnabled false
FireAll ExerelinNGCOtherOptions",,,
ExerelinNGCSetRandomOmnifactoryLocation,NewGameOptionSelected,$option==exerelinNGCSetOmnifactoryRandomLocation,"NGCSetOmnifacRandomLocation true
FireAll ExerelinNGCOtherOptions",,,
ExerelinNGCUnsetRandomOmnifactoryLocation,NewGameOptionSelected,$option==exerelinNGCUnsetOmnifactoryRandomLocation,"NGCSetOmnifacRandomLocation false
FireAll ExerelinNGCOtherOptions",,,
,,,,,,
,,,,,,
ExerelinNGCJoin,ExerelinNGCStep2,,FireAll ExerelinNGCListFactions,Which faction would you like to join?,,
ExerelinNGCFactionsBackToMain,NewGameOptionSelected,$option==exerelinNGCFactionsBack,FireAll ExerelinNGCListFactions,,,
ExerelinNGCFactionsMain,ExerelinNGCListFactions,,,,"exerelinNGCViewVanillaFactions:Vanilla factions
99:exerelinNGCOptionsBack:Back",maybe we should just do it straight alphabetical instead of segregating vanilla factions into their own category
ExerelinNGCViewVanillaFactions,NewGameOptionSelected,$option == exerelinNGCViewVanillaFactions,FireAll ExerelinNGCListFactionsVanilla,,,
ExerelinNGCModFactions1,ExerelinNGCListFactions,,,,exerelinNGCViewModFactions1:Mod factions (A-D),Should check if factions are actually there
ExerelinNGCViewModFactions1,NewGameOptionSelected,$option == exerelinNGCViewModFactions1,FireAll ExerelinNGCListFactions1,,,
ExerelinNGCModFactions2,ExerelinNGCListFactions,,,,exerelinNGCViewModFactions2:Mod factions (E-O),ditto
ExerelinNGCViewModFactions2,NewGameOptionSelected,$option == exerelinNGCViewModFactions2,FireAll ExerelinNGCListFactions2,,,
ExerelinNGCModFactions3,ExerelinNGCListFactions,,,,exerelinNGCViewModFactions3:Mod factions (P-R),
ExerelinNGCViewModFactions3,NewGameOptionSelected,$option == exerelinNGCViewModFactions3,FireAll ExerelinNGCListFactions3,,,
ExerelinNGCModFactions4,ExerelinNGCListFactions,,,,exerelinNGCViewModFactions4:Mod factions (S-Z),
ExerelinNGCViewModFactions4,NewGameOptionSelected,$option == exerelinNGCViewModFactions4,FireAll ExerelinNGCListFactions4,,,
ExerelinNGCFactionsQuickStart,ExerelinNGCListFactions,$global.isDevMode,,,100:exerelinNGCDevStart:>> (dev) quick start,
,,,,,,
ExerelinNGCListHegemony,ExerelinNGCListFactionsVanilla,NGCDoesFactionExist hegemony,,,exerelinNGCJoinHegemony:Hegemony,
ExerelinNGCListTriTachyon,ExerelinNGCListFactionsVanilla,NGCDoesFactionExist tritachyon,,,exerelinNGCJoinTriTachyon:Tri-Tachyon,
ExerelinNGCListLuddicChurch,ExerelinNGCListFactionsVanilla,NGCDoesFactionExist luddic_church,,,exerelinNGCJoinLuddicChurch:Luddic Church,
ExerelinNGCListSindrianDiktat,ExerelinNGCListFactionsVanilla,NGCDoesFactionExist sindrian_diktat,,,exerelinNGCJoinSindrianDiktat:Sindrian Diktat,
ExerelinNGCListPirates,ExerelinNGCListFactionsVanilla,NGCDoesFactionExist pirates,,,exerelinNGCJoinPirate:Pirates (hard),
ExerelinNGCListVanillaFactionsBack,ExerelinNGCListFactionsVanilla,,,,20:exerelinNGCFactionsBack:Back,
,,,,,,
ExerelinNGCListExipiarted,ExerelinNGCListFactions1,NGCDoesFactionExist exipirated,,,exerelinNGCJoinExipirated:Ahriman Association,
ExerelinNGCListASPSyndicate,ExerelinNGCListFactions1,NGCDoesFactionExist syndicate_asp,,,exerelinNGCJoinASPSyndicate:ASP Syndicate,
ExerelinNGCListBlackrock,ExerelinNGCListFactions1,NGCDoesFactionExist blackrock_driveyards,,,exerelinNGCJoinBlackrock:Blackrock Drive Yards,
ExerelinNGCListCitadel,ExerelinNGCListFactions1,NGCDoesFactionExist citadeldefenders,,,exerelinNGCJoinCitadel:Citadel,
ExerelinNGCListCrystanite,ExerelinNGCListFactions1,NGCDoesFactionExist crystanite,,,exerelinNGCJoinCrystanite:Crystanite,
ExerelinNGCListDiableAvionics,ExerelinNGCListFactions1,NGCDoesFactionExist diableavionics,,,exerelinNGCJoinDiableAvionics:Diable Avionics,
ExerelinNGCListModFactions1Back,ExerelinNGCListFactions1,,,,20:exerelinNGCFactionsBack:Back,
,,,,,,
ExerelinNGCListExigency,ExerelinNGCListFactions2,NGCDoesFactionExist exigency,,,exerelinNGCJoinExigency:Exigency Corp,
ExerelinNGCListHiigaranDescendants,ExerelinNGCListFactions2,NGCDoesFactionExist hiigaran_descendants,,,exerelinNGCJoinHiigaranDescendants:Hiigaran Descendants,
ExerelinNGCListInterstellarImperium,ExerelinNGCListFactions2,NGCDoesFactionExist interstellarimperium,,,exerelinNGCJoinInterstellarImperium:Interstellar Imperium,
ExerelinNGCListJunkPirates,ExerelinNGCListFactions2,NGCDoesFactionExist junk_pirates,,,exerelinNGCJoinJunkPirates:Junk Pirates,
ExerelinNGCListTemplars,ExerelinNGCListFactions2,NGCDoesFactionExist templars,,,exerelinNGCJoinTemplars:Knights Templar,
ExerelinNGCListORI,ExerelinNGCListFactions2,NGCDoesFactionExist ori,,,exerelinNGCJoinORI:ORI,
ExerelinNGCListModFactions2Back,ExerelinNGCListFactions2,,,,20:exerelinNGCFactionsBack:Back,
,,,,,,
ExerelinNGCListPACK,ExerelinNGCListFactions3,NGCDoesFactionExist pack,,,exerelinNGCJoinPACK:P.A.C.K.,
ExerelinNGCListPatria,ExerelinNGCListFactions3,NGCDoesFactionExist patnavy,,,exerelinNGCJoinPatria:Patrian Principate,
ExerelinNGCListMayorate,ExerelinNGCListFactions3,NGCDoesFactionExist mayorate,,,exerelinNGCJoinMayorate:Mayorate,
ExerelinNGCListNeutrinoCorp,ExerelinNGCListFactions3,NGCDoesFactionExist neutrinocorp,,,exerelinNGCJoinNeutrinoCorp:Neutrino Corp,
ExerelinNGCListRadicalORI,ExerelinNGCListFactions3,NGCDoesFactionExist rori,,,exerelinNGCJoinRadicalORI:Radical ORI,
ExerelinNGCListModFactions3Back,ExerelinNGCListFactions3,,,,20:exerelinNGCFactionsBack:Back,
,,,,,,
#ExerelinNGCListSCY,ExerelinNGCListFactions4,NGCDoesFactionExist SCY,,,exerelinNGCJoinSCY:SCY Nation,
ExerelinNGCListShadowyards,ExerelinNGCListFactions4,NGCDoesFactionExist shadow_industry,,,exerelinNGCJoinShadowyards:Shadowyards,
ExerelinNGCListValkyrians,ExerelinNGCListFactions4,NGCDoesFactionExist valkyrian,,,exerelinNGCJoinValkyrians:Valkyrians,
ExerelinNGCListModFactions4Back,ExerelinNGCListFactions4,,,,20:exerelinNGCFactionsBack:Back,
,,,,,,
ExerelinNGCDevStart,NewGameOptionSelected,$option == exerelinNGCDevStart,"NGCSetPlayerFaction ""independent""
NGCAddShip ""tempest_Starting""
NGCAddCargo RESOURCES elite_crew 20
NGCAddCargo RESOURCES supplies 20
NGCAddCargo RESOURCES fuel 20
NGCAddCredits 1000000
NGCSetAptitude technology 10
NGCSetAptitude combat 10
NGCAddSkillPoints 200
NGCAddAptitudePoints 10
NGCSetStartingLocation Exerelin -2700 3250
NGCDone",,,
ExerelinNGCJoinHegemony,NewGameOptionSelected,$option == exerelinNGCJoinHegemony,"NGCSetPlayerFaction ""hegemony""
NGCAddShipAndComplement ""lasher_Starting""
AddText ""Added Lasher-class frigate"" textFriendColor
FireBest ExerelinNGCStep3",,,
ExerelinNGCJoinSindrianDiktat,NewGameOptionSelected,$option == exerelinNGCJoinSindrianDiktat,"NGCSetPlayerFaction ""sindrian_diktat""
NGCAddShipAndComplement ""brawler_Elite""
AddText ""Added Brawler-class gunship"" textFriendColor
FireBest ExerelinNGCStep3",,,
ExerelinNGCJoinTriTachyon,NewGameOptionSelected,$option == exerelinNGCJoinTriTachyon,"NGCSetPlayerFaction ""tritachyon""
NGCAddShipAndComplement ""wolf_Starting""
AddText ""Added Wolf-class frigate"" textFriendColor
FireBest ExerelinNGCStep3",,,
ExerelinNGCJoinLuddicChurch,NewGameOptionSelected,$option == exerelinNGCJoinLuddicChurch,"NGCSetPlayerFaction ""luddic_church""
NGCAddShipAndComplement ""vigilance_Starting""
AddText ""Added Vigilance-class frigate"" textFriendColor
FireBest ExerelinNGCStep3",,,
ExerelinNGCJoinPirate,NewGameOptionSelected,$option == exerelinNGCJoinPirate,"NGCSetPlayerFaction ""pirates""
NGCAddShipAndComplement ""cerberus_Standard""
AddText ""Added Cerberus-class frigate"" textFriendColor
FireBest ExerelinNGCStep3",,,
ExerelinNGCJoinASPSyndicate,NewGameOptionSelected,$option == exerelinNGCJoinASPSyndicate,"NGCSetPlayerFaction ""syndicate_asp""
NGCAddShipAndComplement ""syndicate_asp_diamondback_Standard""
AddText ""Added Diamondback-class frigate"" textFriendColor
FireBest ExerelinNGCStep3",,,
ExerelinNGCJoinBlackrock,NewGameOptionSelected,$option == exerelinNGCJoinBlackrock,"NGCSetPlayerFaction ""blackrock_driveyards""
NGCAddShipAndComplement ""brdy_mantis_attack""
AddText ""Added Mantis-class frigate"" textFriendColor
FireBest ExerelinNGCStep3",,,
ExerelinNGCJoinCitadel,NewGameOptionSelected,$option == exerelinNGCJoinCitadel,"NGCSetPlayerFaction ""citadeldefenders""
NGCAddShipAndComplement ""Fox_Frigate_standard""
AddText ""Added Aural-class skirmisher"" textFriendColor
FireBest ExerelinNGCStep3",,,
ExerelinNGCJoinCrystanite,NewGameOptionSelected,$option == exerelinNGCJoinCrystanite,"NGCSetPlayerFaction ""crystanite""
NGCAddShipAndComplement ""crys_pin_standard""
AddText ""Added Pin-class frigate"" textFriendColor
FireBest ExerelinNGCStep3",,,
ExerelinNGCJoinDiableAvionics,NewGameOptionSelected,$option == exerelinNGCJoinDiableAvionics,"NGCSetPlayerFaction ""diableavionics""
NGCAddShipAndComplement ""diableavionics_vapor_standard""
AddText ""Added Vapor-class frigate"" textFriendColor
FireBest ExerelinNGCStep3",,,
ExerelinNGCJoinExigency,NewGameOptionSelected,$option == exerelinNGCJoinExigency,"NGCSetPlayerFaction ""exigency""
NGCAddShipAndComplement ""exigency_yria_Assault""
AddText ""Added Yria-class frigate"" textFriendColor
FireBest ExerelinNGCStep3",,,
ExerelinNGCJoinExipirated,NewGameOptionSelected,$option == exerelinNGCJoinExipirated,"NGCSetPlayerFaction ""exipirated""
NGCAddShipAndComplement ""exipirated_rauwel_Standard""
AddText ""Added Rauwel-class frigate"" textFriendColor
FireBest ExerelinNGCStep3",,,
ExerelinNGCJoinHiigaranDescendants,NewGameOptionSelected,$option == exerelinNGCJoinHiigaranDescendants,"NGCSetPlayerFaction ""hiigaran_descendants""
NGCAddShipAndComplement ""hii_jet_Standard""
AddText ""Added Jet-class frigate"" textFriendColor
FireBest ExerelinNGCStep3",,,
ExerelinNGCJoinInterstellarImperium,NewGameOptionSelected,$option == exerelinNGCJoinInterstellarImperium,"NGCSetPlayerFaction ""interstellarimperium""
NGCAddShipAndComplement ""ii_decurion_sta""
AddText ""Added Decurion-class frigate"" textFriendColor
FireBest ExerelinNGCStep3",,,
ExerelinNGCJoinJunkPirates,NewGameOptionSelected,$option == exerelinNGCJoinJunkPirates,"NGCSetPlayerFaction ""junk_pirates""
NGCAddShipAndComplement ""junk_pirates_clam_Standard""
AddText ""Added Clam-class frigate"" textFriendColor
FireBest ExerelinNGCStep3",,,
ExerelinNGCJoinTemplars,NewGameOptionSelected,$option == exerelinNGCJoinTemplars,"NGCSetPlayerFaction ""templars""
NGCAddShipAndComplement ""tem_martyr_def""
AddText ""Added Matyr-class corvette"" textFriendColor
FireBest ExerelinNGCStep3",,,
ExerelinNGCJoinMayorate,NewGameOptionSelected,$option == exerelinNGCJoinMayorate,"NGCSetPlayerFaction ""mayorate""
NGCAddShipAndComplement ""ilk_lilith_assault""
AddText ""Added Lilith-class frigate"" textFriendColor
FireBest ExerelinNGCStep3",,,
ExerelinNGCJoinNeutrinoCorp,NewGameOptionSelected,$option == exerelinNGCJoinNeutrinoCorp,"NGCSetPlayerFaction ""neutrinocorp""
NGCAddShipAndComplement ""neutrino_singularity_standard""
AddText ""Added Singularity-class frigate"" textFriendColor
FireBest ExerelinNGCStep3",,,
ExerelinNGCJoinORI,NewGameOptionSelected,$option == exerelinNGCJoinORI,"NGCSetPlayerFaction ""ori""
NGCAddShipAndComplement ""ori_bastion_variant""
AddText ""Added Bastion-class frigate"" textFriendColor
FireBest ExerelinNGCStep3",,,
ExerelinNGCJoinPACK,NewGameOptionSelected,$option == exerelinNGCJoinPACK,"NGCSetPlayerFaction ""pack""
NGCAddShipAndComplement ""pack_wirefox_Standard""
AddText ""Added Wirefox-class frigate"" textFriendColor
FireBest ExerelinNGCStep3",,,
ExerelinNGCJoinPatria,NewGameOptionSelected,$option == exerelinNGCJoinPatria,"NGCSetPlayerFaction ""patnavy""
NGCAddShipAndComplement ""pat_kortenaer_patrian""
AddText ""Added Kortenaer-class frigate"" textFriendColor
FireBest ExerelinNGCStep3",,,
ExerelinNGCJoinRadicalORI,NewGameOptionSelected,$option == exerelinNGCJoinRadicalORI,"NGCSetPlayerFaction ""rori""
NGCAddShipAndComplement ""ori_bastion_variant""
AddText ""Added Bastion-class frigate"" textFriendColor
FireBest ExerelinNGCStep3",,,
#ExerelinNGCJoinSCY,NewGameOptionSelected,$option == exerelinNGCJoinSCY,"NGCSetPlayerFaction ""SCY""
NGCAddShipAndComplement ""SCY_tisiphone_combat""
AddText ""Added Tisiphone-class frigate"" textFriendColor
FireBest ExerelinNGCStep3",,,
ExerelinNGCJoinShadowyards,NewGameOptionSelected,$option == exerelinNGCJoinShadowyards,"NGCSetPlayerFaction ""shadow_industry""
NGCAddShipAndComplement ""ms_enlil_Balanced""
AddText ""Added Enlil-class gunship"" textFriendColor
FireBest ExerelinNGCStep3",,,
ExerelinNGCJoinValkyrians,NewGameOptionSelected,$option == exerelinNGCJoinValkyrians,"NGCSetPlayerFaction ""valkyrian""
NGCAddShipAndComplement ""valk_longinus_A""
AddText ""Added Longinus-class frigate"" textFriendColor
FireBest ExerelinNGCStep3",,,
,,,,,,
ExerelinNGCFinalize,ExerelinNGCStep3,,"AddText ""Added $crewAdded crew"" textFriendColor
AddText ""Added $suppliesAdded supplies"" textFriendColor
AddText ""Added $suppliesAdded fuel"" textFriendColor",,exerelinNGCDone:Continue,
ExerelinNGCDoneOptionDefault,NewGameOptionSelected,$option == exerelinNGCDone,"NGCAddCredits 10000
NGCAddAptitudePoints 2
NGCAddSkillPoints 6
AddText ""Added 2 aptitude points"" textFriendColor
AddText ""Added 6 skill points"" textFriendColor
AddText ""Added 10000 credits"" textFriendColor
NGCSetStartingLocation Exerelin 600 600
NGCDone",,,
# END NGC OPTIONS,,,,,,
,,,,,,
,,,,,,
ExerelinMarketAddOptionSpecial,PopulateOptions,"$menuState == main
!$faction.isNeutralFaction","SetShortcut exerelinMarketSpecial ""S"" true",,6:exerelinMarketSpecial:Special functions,
ExerelinMarketSpecialOptions,DialogOptionSelected,$option == exerelinMarketSpecial,FireAll ExerelinMarketSpecial,,,
ExerelinMarketLeaveOption,ExerelinMarketSpecial,,,,10:exerelinMarketSpecialBack:Back,
ExerelinMarketSpecialBack,DialogOptionSelected,$option == exerelinMarketSpecialBack,"ShowDefaultVisual
$menuState = main 0
FireAll PopulateOptions",,,
,,,,,,
# START INVASION OPTIONS,,,,,,
ExerelinMarketInvadeOption,ExerelinMarketSpecial,"$hasMarket
$faction.id != $player.factionId
$faction.id != ""neutral""
HasMarines",SetEnabled exerelinInvasion true,,1:exerelinInvasion:Invade the planet/station,
ExerelinMarketInvadeOptionNoMarines,ExerelinMarketSpecial,"$hasMarket
$faction.id != $player.factionId
$faction.id != ""neutral""
!HasMarines","SetTooltip exerelinInvasion ""You have no marines!""
SetEnabled exerelinInvasion false",,1:exerelinInvasion:Invade the planet/station,
ExerelinInvasionStart,DialogOptionSelected,$option == exerelinInvasion,"ShowVisual ""graphics/illustrations/quartermaster.jpg""
PredictInvasionResults",Your intelligence officer runs a few quick simulations to predict the outcome of the attack.,"exerelinInvasionProceed:Proceed
exerelinInvasionHelp:Consult a help file
exerelinInvasionCancel:Cancel",
ExerelinInvasionHelp,DialogOptionSelected,$option == exerelinInvasionHelp,,"Base attacker strength = (marine strength + fleet DP/2) * 0.7 (average)
Base defender strength = (market size^3) * (stability + 0.25) * 0.75
Each Military Base and Regional Capital adds 25% to defender strength, Headquarters adds 40%.
Attacker strength varies by up to 1/7th in either direction.

If attacker roll exceeds defender strength, the market is captured.
Marine losses depend on both strength values, plus a random factor.

Markets accumulate a reserve force over time that can be quickly deployed in response to invasions.","exerelinInvasionProceed:Proceed
exerelinInvasionHelp:Consult a help file
exerelinInvasionCancel:Cancel",
ExerelinInvasionProceed,DialogOptionSelected,"$option == exerelinInvasionProceed
$hasMarket ","Wait $global.exerelinInvasionWait 1 $global.exerelinInvasionRoundComplete $global.exerelinInvasionInterrupted $global.exerelinInvasionInProgress ""Invading...""
BroadcastPlayerWaitAction $global.exerelinInvasionWait HOSTILE 750 $exerelinRespondingToInvasion
MakePlayerImmediatelyAttackable
TriggerResponseFleet
$player.invasionTarget = $id 1.01",,,
ExerelinInvasionCancel,DialogOptionSelected,"$option == exerelinInvasionCancel
$hasMarket","ShowDefaultVisual
FireAll ExerelinMarketSpecial",You decide not to attack $entityName.,,
ExerelinInvasionLeave,DialogOptionSelected,"$option == exerelinInvasionLeave
$hasMarket",DismissDialog,You decide not to continue the invasion.,,
ExerelinInvasionDone,DialogOptionSelected,"$option == exerelinInvasionLeave
$hasMarket",DismissDialog,,,
ExerelinInvasionOpen,OpenInteractionDialog,"$hasMarket
$id == $player.invasionTarget","ShowDefaultVisual
FireBest ExerelinInitInvadeDialog",,,
ExerelinInvasionRoundComplete,ExerelinInitInvadeDialog,"$hasMarket
$global.exerelinInvasionRoundComplete score:100","ExecuteInvasionRound
FireBest ExerelinInvasionResults
",INVASION OUTCOME:,,
ExerelinInvasionResultsComplete,ExerelinInvasionResults,$exerelinInvasionSuccessful,"ShowVisual ""graphics/illustrations/quartermaster.jpg""
unset $player.invasionTarget
FireAll PopulateOptions",You've successfully captured $entityName!,,
ExerelinInvasionResultsIncomplete,ExerelinInvasionResults,"!$exerelinInvasionSuccessful
HasMarines","ShowVisual ""graphics/illustrations/hull_breach.jpg""
unset $player.invasionTarget",You have not yet captured $entityName.,"exerelinInvasionStart:Attack again
exerelinInvasionLeave:Leave",
ExerelinInvasionResultsIncompleteNoMoreMarines,ExerelinInvasionResults,"!$exerelinInvasionSuccessful
!HasMarines","ShowVisual ""graphics/illustrations/hull_breach.jpg""
unset $player.invasionTarget","You have not yet captured $entityName.

Your marine complement has been wiped out; you cannot continue the offensive.",exerelinInvasionLeave:Leave,
ExerelinInvasionInterupted,ExerelinInitInvadeDialog,"$hasMarket
$global.exerelinInvasionInterrupted","unset $global.exerelinInvasionInterrupted
unset $player.invasionTarget
$menuState = main 0
FireBest MarketPostOpen",Your invasion was interrupted.,,
ExerelinInitInvasionInProgress,ExerelinInitInvadeDialog,"$hasMarket
$global.exerelinInvasionInProgress
!$global.exerelinInvasionInterrupted
!$global.exerelinInvasionRoundComplete",,You're currently invading $entityName.,,
ExerelinInitInvasionAbort,DialogOptionSelected,$option==exerelinAbort,"AbortWait $global.exerelinInvasionWait
unset $player.invasionTarget
$menuState = main 0
FireAll PopulateOptions",The invasion is cancelled.,,
ExerelinInvasionInterference_start,BeginFleetEncounter,"$exerelinRespondingToInvasion score:100
$global.exerelinInvasionInProgress","AbortWait $global.exerelinInvasionWait
MakeOtherFleetHostile true
MakeOtherFleetAggressive true
unset $ignorePlayerCommRequests
unset $player.invasionTarget
AdjustRep $faction.id COMBAT_NORMAL
BroadcastCancelPlayerAction 1500 $exerelinRespondingToInvasion",The appearance of a $faction $otherShipOrFleet disrupts your invasion preparations.,,
ExerelinInvasionInterference_cancelledAndRan,BeginFleetEncounter,$exerelinRespondingToInvasion score:100,"MakeOtherFleetHostile true
MakeOtherFleetAggressive true
unset $ignorePlayerCommRequests
unset $player.invasionTarget
AdjustRep $faction.id COMBAT_NORMAL
BroadcastCancelPlayerAction 1500 $exerelinRespondingToInvasion","The $faction $otherShipOrFleet catches up with you, weapons hot.",,
ExerelinDialogInvadeInterference_open,OpenCommLink,$exerelinRespondingToInvasion score:100,$ignorePlayerCommRequests = true 1,"""You'll pay for trying to invade our territory!"" The comm link is cut before you can begin to respond.",continueCutComm:Continue,
# END INVASION OPTIONS,,,,,,
,,,,,,
#START MARKET DIRECTORY OPTIONS,,,,,,
ExerelinMarketFactionDirectoryOption,ExerelinMarketSpecial,,,,5:exerelinFactionDirectoryMain:Faction directory,
ExerelinFactionDirectory,DialogOptionSelected,$option == exerelinFactionDirectoryMain,,Which faction do you want to look up?,"exerelinFactionDirectoryList1:A-H
exerelinFactionDirectoryList2:I-O
exerelinFactionDirectoryList3:P-Z
exerelinMarketIntel:Open intel screen
exerelinMarketSpecial:Back",
ExerelinFactionDirectoryList1,DialogOptionSelected,$option == exerelinFactionDirectoryList1,FireAll ExerelinFactionDirectoryList1,,,
ExerelinFactionDirectoryList2,DialogOptionSelected,$option == exerelinFactionDirectoryList2,FireAll ExerelinFactionDirectoryList2,,,
ExerelinFactionDirectoryList3,DialogOptionSelected,$option == exerelinFactionDirectoryList3,FireAll ExerelinFactionDirectoryList3,,,
,,,,,,
ExerelinFactionDirectoryListExipirated,ExerelinFactionDirectoryList1,IsFactionAlive exipirated,,,exerelinFactionDirectoryGetExipirated:Ahriman Association,
ExerelinFactionDirectoryListASPSyindicate,ExerelinFactionDirectoryList1,IsFactionAlive syndicate_asp,,,exerelinFactionDirectoryGetASPSyndicate:ASP Syndicate,
ExerelinFactionDirectoryListBlackrock,ExerelinFactionDirectoryList1,IsFactionAlive blackrock_driveyards,,,exerelinFactionDirectoryGetBlackrock:Blackrock,
ExerelinFactionDirectoryListCitadel,ExerelinFactionDirectoryList1,IsFactionAlive citadeldefenders,,,exerelinFactionDirectoryGetCitadel:Citadel,
ExerelinFactionDirectoryListCrystanite,ExerelinFactionDirectoryList1,IsFactionAlive crystanite,,,exerelinFactionDirectoryGetCrystanite:Crystanite,
ExerelinFactionDirectoryListDiableAvionics,ExerelinFactionDirectoryList1,IsFactionAlive diableavionics,,,exerelinFactionDirectoryGetDiableAvionics:Diable Avionics,
ExerelinFactionDirectoryListExigency,ExerelinFactionDirectoryList1,IsFactionAlive exigency,,,exerelinFactionDirectoryGetExigency:Exigency Corp,
ExerelinFactionDirectoryListHegemony,ExerelinFactionDirectoryList1,IsFactionAlive hegemony,,,exerelinFactionDirectoryGetHegemony:Hegemony,
ExerelinFactionDirectoryListHiigaranDescendants,ExerelinFactionDirectoryList1,IsFactionAlive hiigaran_descendants,,,exerelinFactionDirectoryGetHiigaranDescendants:Hiigaran Descendants,
ExerelinFactionDirectoryList1Back,ExerelinFactionDirectoryList1,,,,exerelinFactionDirectoryMain:Back,
,,,,,,
ExerelinFactionDirectoryListInterstellarImperium,ExerelinFactionDirectoryList2,IsFactionAlive interstellarimperium,,,exerelinFactionDirectoryGetInterstellarImperium:Interstellar Imperium,
ExerelinFactionDirectoryListJunkPirates,ExerelinFactionDirectoryList2,IsFactionAlive junk_pirates,,,exerelinFactionDirectoryGetJunkPirates:Junk Pirates,
ExerelinFactionDirectoryListTemplars,ExerelinFactionDirectoryList2,IsFactionAlive templars,,,exerelinFactionDirectoryGetTemplars:Knights Templar,
ExerelinFactionDirectoryListLuddicChurch,ExerelinFactionDirectoryList2,IsFactionAlive luddic_church,,,exerelinFactionDirectoryGetLuddicChurch:Luddic Church,
ExerelinFactionDirectoryListMayorate,ExerelinFactionDirectoryList2,IsFactionAlive mayorate,,,exerelinFactionDirectoryGetMayorate:Mayorate,
ExerelinFactionDirectoryListNeutrinoCorp,ExerelinFactionDirectoryList2,IsFactionAlive neutrinocorp,,,exerelinFactionDirectoryGetNeutrinoCorp:Neutrino Corp,
ExerelinFactionDirectoryListORI,ExerelinFactionDirectoryList2,IsFactionAlive ori,,,exerelinFactionDirectoryGetORI:ORI,
ExerelinFactionDirectoryList2Back,ExerelinFactionDirectoryList2,,,,exerelinFactionDirectoryMain:Back,
,,,,,,
ExerelinFactionDirectoryListPACK,ExerelinFactionDirectoryList3,IsFactionAlive pack,,,exerelinFactionDirectoryGetPACK:P.A.C.K.,
ExerelinFactionDirectoryListPatria,ExerelinFactionDirectoryList3,IsFactionAlive patnavy,,,exerelinFactionDirectoryGetPatria:Patrian Principate,
ExerelinFactionDirectoryListPirates,ExerelinFactionDirectoryList3,IsFactionAlive pirates,,,exerelinFactionDirectoryGetPirates:Pirates,
ExerelinFactionDirectoryListRadicalORI,ExerelinFactionDirectoryList3,IsFactionAlive rori,,,exerelinFactionDirectoryGetRadicalORI:Radical ORI,
ExerelinFactionDirectoryListShadowyards,ExerelinFactionDirectoryList3,IsFactionAlive shadow_industry,,,exerelinFactionDirectoryGetShadowyards:Shadowyards,
ExerelinFactionDirectoryListSindrianDiktat,ExerelinFactionDirectoryList3,IsFactionAlive sindrian_diktat,,,exerelinFactionDirectoryGetSindrianDiktat:Sindrian Diktat,
ExerelinFactionDirectoryListTriTachyon,ExerelinFactionDirectoryList3,IsFactionAlive tritachyon,,,exerelinFactionDirectoryGetTriTachyon:Tri-Tachyon,
ExerelinFactionDirectoryListValkyrians,ExerelinFactionDirectoryList3,IsFactionAlive valkyrian,,,exerelinFactionDirectoryGetValkyrians:Valkyrians,
ExerelinFactionDirectoryList3Back,ExerelinFactionDirectoryList3,,,,exerelinFactionDirectoryMain:Back,
,,,,,,
# this feels like it could be a billion times more efficient,,,,,,
ExerelinFactionDirectoryGetASPSyndicate,DialogOptionSelected,$option == exerelinFactionDirectoryGetASPSyndicate,PrintFactionMarkets syndicate_asp,,,
ExerelinFactionDirectoryGetBlackrock,DialogOptionSelected,$option == exerelinFactionDirectoryGetBlackrock,PrintFactionMarkets blackrock_driveyards,,,
ExerelinFactionDirectoryGetCitadel,DialogOptionSelected,$option == exerelinFactionDirectoryGetCitadel,PrintFactionMarkets citadeldefenders,,,
ExerelinFactionDirectoryGetCrystanite,DialogOptionSelected,$option == exerelinFactionDirectoryGetCrystanite,PrintFactionMarkets crystanite,,,
ExerelinFactionDirectoryGetDiableAvionics,DialogOptionSelected,$option == exerelinFactionDirectoryGetDiableAvionics,PrintFactionMarkets diableavionics,,,
ExerelinFactionDirectoryGetExigency,DialogOptionSelected,$option == exerelinFactionDirectoryGetExigency,PrintFactionMarkets exigency,,,
ExerelinFactionDirectoryGetExipirated,DialogOptionSelected,$option == exerelinFactionDirectoryGetExipirated,PrintFactionMarkets exipirated,,,
ExerelinFactionDirectoryGetHegemony,DialogOptionSelected,$option == exerelinFactionDirectoryGetHegemony,PrintFactionMarkets hegemony,,,
ExerelinFactionDirectoryGetHiigaranDescendants,DialogOptionSelected,$option == exerelinFactionDirectoryGetHiigaranDescendants,PrintFactionMarkets hiigaran_descendants,,,
ExerelinFactionDirectoryGetInterstellarImperium,DialogOptionSelected,$option == exerelinFactionDirectoryGetInterstellarImperium,PrintFactionMarkets interstellarimperium,,,
ExerelinFactionDirectoryGetJunkPirates,DialogOptionSelected,$option == exerelinFactionDirectoryGetJunkPirates,PrintFactionMarkets junk_pirates,,,
ExerelinFactionDirectoryGetLuddicChurch,DialogOptionSelected,$option == exerelinFactionDirectoryGetLuddicChurch,PrintFactionMarkets luddic_church,,,
ExerelinFactionDirectoryGetMayorate,DialogOptionSelected,$option == exerelinFactionDirectoryGetMayorate,PrintFactionMarkets mayorate,,,
ExerelinFactionDirectoryGetNeutrinoCorp,DialogOptionSelected,$option == exerelinFactionDirectoryGetNeutrinoCorp,PrintFactionMarkets neutrinocorp,,,
ExerelinFactionDirectoryGetORI,DialogOptionSelected,$option == exerelinFactionDirectoryGetORI,PrintFactionMarkets ori,,,
ExerelinFactionDirectoryGetPACK,DialogOptionSelected,$option == exerelinFactionDirectoryGetPACK,PrintFactionMarkets pack,,,
ExerelinFactionDirectoryGetPatria,DialogOptionSelected,$option == exerelinFactionDirectoryGetPatria,PrintFactionMarkets patnavy,,,
ExerelinFactionDirectoryGetPirates,DialogOptionSelected,$option == exerelinFactionDirectoryGetPirates,PrintFactionMarkets pirates,,,
ExerelinFactionDirectoryGetRadicalORI,DialogOptionSelected,$option == exerelinFactionDirectoryGetRadicalORI,PrintFactionMarkets rori,,,
ExerelinFactionDirectoryGetShadowyards,DialogOptionSelected,$option == exerelinFactionDirectoryGetShadowyards,PrintFactionMarkets shadow_industry,,,
ExerelinFactionDirectoryGetSindrianDiktat,DialogOptionSelected,$option == exerelinFactionDirectoryGetSindrianDiktat,PrintFactionMarkets sindrian_diktat,,,
ExerelinFactionDirectoryGetTemplars,DialogOptionSelected,$option == exerelinFactionDirectoryGetTemplars,PrintFactionMarkets templars,,,
ExerelinFactionDirectoryGetTriTachyon,DialogOptionSelected,$option == exerelinFactionDirectoryGetTriTachyon,PrintFactionMarkets tritachyon,,,
ExerelinFactionDirectoryGetValkyrians,DialogOptionSelected,$option == exerelinFactionDirectoryGetValkyrians,PrintFactionMarkets valkyrian,,,
#END MARKET DIRECTORY OPTIONS,,,,,,
,,,,,,
#START AGENT OPTIONS,,,,,,
ExerelinMarketAgentOption,ExerelinMarketSpecial,"$hasMarket
$faction.id != $player.factionId
$faction.id != ""neutral""
HasItem agent",SetEnabled exerelinUseAgent true,,2:exerelinUseAgent:Deploy an agent,
ExerelinMarketAgentOptionNoAgents,ExerelinMarketSpecial,"$hasMarket
$faction.id != $player.factionId
$faction.id != ""neutral""
!HasItem agent","SetTooltip exerelinUseAgent ""You have no agents!""
SetEnabled exerelinUseAgent false",,2:exerelinUseAgent:Deploy an agent,
ExerelinMarketAgentOptionNoSneak,ExerelinMarketSpecial,"$hasMarket
$faction.id != $player.factionId
$faction.id != ""neutral""
$tradeMode == NONE
ArePatrolsNearby $faction.id 750 score:10","SetTooltip exerelinUseAgent ""The port is closed to you, and $faction patrols nearby prevent agent insertion.""
SetEnabled exerelinUseAgent false",,,
ExerelinAgentOptionListMain,DialogOptionSelected,$option == exerelinUseAgent,"GetNumSpecialPeople
ShowVisual ""graphics/illustrations/quartermaster.jpg""
FireAll ExerelinAgentOption",,,
ExerelinAgentOptionNumAgents,ExerelinAgentOption,,SetTextHighlights $numAgents,You have $numAgents agent(s) to deploy.,,
ExerelinAgentOptionListRaiseRelations,ExerelinAgentOption,,"SetTooltip exerelinAgentRaiseRelations ""Influence $theFaction to like your faction more. If it fails, there is a chance they will turn more hostile instead.""",,exerelinAgentRaiseRelations:Raise relations,
ExerelinAgentOptionListLowerRelations,ExerelinAgentOption,,"SetTooltip exerelinAgentLowerRelations ""Influence $theFaction to dislike one of your factions' enemies more. If your attempt is detected, both factions will be angry with you.""",,exerelinAgentLowerRelations:Lower relations,
ExerelinAgentOptionListDestabilizeMarket,ExerelinAgentOption,,"SetTooltip exerelinAgentDestabilizeMarket ""Attempt the use of terror methods to destabilize $market. There is a chance your agent will be detected, with serious diplomatic repercussions.""",,exerelinAgentDestabilizeMarket:Destabilize market,
ExerelinAgentOptionListBack,ExerelinAgentOption,,,,exerelinMarketSpecial:Back,
,,,,,,
ExerelinAgentRaiseRelations,DialogOptionSelected,$option == exerelinAgentRaiseRelations,"AgentRaiseRelations
FireAll ExerelinAgentPostDeploy",The agent has been deployed. They will execute their task momentarily.,,
ExerelinAgentLowerRelations,DialogOptionSelected,$option == exerelinAgentLowerRelations,"AgentLowerRelations
FireAll ExerelinAgentPostDeploy",The agent has been deployed. They will execute their task momentarily.,,
ExerelinAgentDestabilizeMarket,DialogOptionSelected,"$option == exerelinAgentDestabilizeMarket
","AgentDestabilizeMarket
FireAll ExerelinAgentPostDeploy",The agent has been deployed. They will execute their task momentarily.,,
ExerelinAgentAfterDeploy,ExerelinAgentPostDeploy,HasItem agent,"GetNumSpecialPeople
FireAll ExerelinAgentOption",,,
ExerelinAgentAfterDeployNoMoreAgents,ExerelinAgentPostDeploy,!HasItem agent,"$menuState = main 0
ShowDefaultVisual
FireAll PopulateOptions",You have no more agents to deploy.,,
#END AGENT OPTIONS,,,,,,
,,,,,,
#START SABOTEUR OPTIONS,,,,,,
ExerelinMarketSaboteurOption,ExerelinMarketSpecial,"$hasMarket
$faction.id != $player.factionId
$faction.id != ""neutral""
HasItem saboteur",SetEnabled exerelinUseSaboteur true,,2:exerelinUseSaboteur:Deploy a saboteur,
ExerelinMarketSaboteurOptionNoSaboteurs,ExerelinMarketSpecial,"$hasMarket
$faction.id != $player.factionId
$faction.id != ""neutral""
!HasItem saboteur","SetTooltip exerelinUseSaboteur ""You have no saboteurs!""
SetEnabled exerelinUseSaboteur false",,2:exerelinUseSaboteur:Deploy a saboteur,
ExerelinMarketSaboteurOptionNoSneak,ExerelinMarketSpecial,"$hasMarket
$faction.id != $player.factionId
$faction.id != ""neutral""
$tradeMode == NONE
ArePatrolsNearby $faction.id 750 score:10","SetTooltip exerelinUseSaboteur ""The port is closed to you, and $faction patrols nearby prevent saboteur insertion.""
SetEnabled exerelinUseSaboteur false",,,
ExerelinSaboteurOptionListMain,DialogOptionSelected,$option == exerelinUseSaboteur,"GetNumSpecialPeople
ShowVisual ""graphics/illustrations/cargo_loading.jpg""
FireAll ExerelinSaboteurOption",,,
ExerelinSaboteurOptionNumSaboteurs,ExerelinSaboteurOption,,SetTextHighlights $numSaboteurs,You have $numSaboteurs saboteur(s) to deploy.,,
ExerelinSaboteurOptionListSabotageReserve,ExerelinSaboteurOption,,"SetTooltip exerelinSaboteurSabotageReserve ""Sabotages the reserve fleet on $market, weakening its ability to respond to invasions. Needless to say, this will be considered a hostile act if discovered.""",,exerelinSaboteurSabotageReserve:Sabotage reserve fleet,
ExerelinSaboteurOptionListDestroyFood,ExerelinSaboteurOption,,"SetTooltip exerelinSaboteurDestroyFood ""Destroys a large amount of food on $market, possibly provoking a destabilizing crisis.""",,exerelinSaboteurDestroyFood:Destroy food stockpiles,
ExerelinSaboteurOptionListBack,ExerelinSaboteurOption,,,,exerelinMarketSpecial:Back,
ExerelinSaboteurSabotageReserve,DialogOptionSelected,$option == exerelinSaboteurSabotageReserve,"SaboteurSabotageReserve
FireAll ExerelinSaboteurPostDeploy",The saboteur has been deployed. They will execute their task momentarily.,,
ExerelinSaboteurDestroyFood,DialogOptionSelected,$option == exerelinSaboteurDestroyFood,"SaboteurDestroyFood
FireAll ExerelinSaboteurPostDeploy",The saboteur has been deployed. They will execute their task momentarily.,,
ExerelinSaboteurAfterDeploy,ExerelinSaboteurPostDeploy,HasItem saboteur,"GetNumSpecialPeople
FireAll ExerelinSaboteurOption",,,
ExerelinSaboteurAfterDeployNoMoreSaboteurs,ExerelinSaboteurPostDeploy,!HasItem saboteur,"$menuState = main 0
ShowDefaultVisual
FireAll PopulateOptions",You have no more saboteurs to deploy.,,
#END SABOTEUR OPTIONS,,,,,,
,,,,,,
#START PRISONER OPTIONS,,,,,,
ExerelinMarketPrisonerOption,ExerelinMarketSpecial,"$hasMarket
$faction.id != ""neutral""
HasItem prisoner",SetEnabled exerelinUsePrisoner true,,3:exerelinUsePrisoner:Prisoner actions,
ExerelinMarketPrisonerOptionNoPrisoners,ExerelinMarketSpecial,"$hasMarket
$faction.id != ""neutral""
!HasItem prisoner","SetTooltip exerelinUsePrisoner ""You have no prisoners!""
SetEnabled exerelinUsePrisoner false",,3:exerelinUsePrisoner:Prisoner actions,
ExerelinPrisonerOptionListMain,DialogOptionSelected,$option == exerelinUsePrisoner,"GetNumSpecialPeople
ShowVisual ""graphics/illustrations/pirate_station.jpg""
FireAll ExerelinPrisonerOption",,,
ExerelinPrisonerOptionNumPrisoners,ExerelinPrisonerOption,,SetTextHighlights $numPrisoners,You have $numPrisoners prisoner(s).,,
ExerelinPrisonerOptionListRepatriate,ExerelinPrisonerOption,,"SetTooltip exerelinPrisonerRepatriate ""Release a prisoner for a reputation boost with $theFaction.""",,exerelinPrisonerRepatriate:Repatriate prisoner,
ExerelinPrisonerOptionListRansom,ExerelinPrisonerOption,"RepIsAtWorst $faction.id INHOSPITABLE
!IsPirateFaction $faction.id","GetPrisonerValue
SetTooltip exerelinPrisonerRansom ""Return a prisoner in exchange for a ransom of $ransomValue credits.""
SetTooltipHighlightColors exerelinPrisonerRansom buttonShortcut 
SetTooltipHighlights exerelinPrisonerRansom $ransomValue
SetEnabled exerelinPrisonerRansom true",,exerelinPrisonerRansom:Collect ransom,
ExerelinPrisonerOptionListRansomHostile,ExerelinPrisonerOption,"RepIsAtBest $faction.id HOSTILE
!IsPirateFaction $faction.id","SetTooltip exerelinPrisonerRansom ""$TheFaction is $relAdjective to you and refuses to consider any ransom payment.""
SetEnabled exerelinPrisonerRansom false",,exerelinPrisonerRansom:Collect ransom,
ExerelinPrisonerOptionListRansomPirates,ExerelinPrisonerOption,IsPirateFaction $faction.id,"SetTooltip exerelinPrisonerRansom ""Pirates do not pay ransom.""
SetEnabled exerelinPrisonerRansom false",,exerelinPrisonerRansom:Collect ransom,
ExerelinPrisonerOptionListSellSlave,ExerelinPrisonerOption,$tradeMode != NONE,"GetPrisonerValue
SetTooltip exerelinPrisonerSellSlave ""Sell a prisoner as a slave for $slaveValue credits. This will anger lawful factions.""
SetTooltipHighlightColors exerelinPrisonerSellSlave buttonShortcut 
SetTooltipHighlights exerelinPrisonerSellSlave $slaveValue
SetEnabled exerelinPrisonerSellSlave true",,exerelinPrisonerSellSlave:Sell as slave,
ExerelinPrisonerOptionListSellSlaveNoMarket,ExerelinPrisonerOption,$tradeMode == NONE,"SetTooltip exerelinPrisonerSellSlave ""You cannot dock with $market to perform this trade.""
SetEnabled exerelinPrisonerSellSlave false",,exerelinPrisonerSellSlave:Sell as slave,
ExerelinPrisonerOptionListBack,ExerelinPrisonerOption,,,,exerelinMarketSpecial:Back,
ExerelinPrisonerRepatriate,DialogOptionSelected,$option == exerelinPrisonerRepatriate,"PrisonerRepatriate
FireAll ExerelinPrisonerPostTrade",The prisoner has been repatriated.,,
ExerelinPrisonerRansom,DialogOptionSelected,$option == exerelinPrisonerRansom,"PrisonerRansom
SetTextHighlights $ransomValue
FireAll ExerelinPrisonerPostTrade",The prisoner has been ransomed for $ransomValue credits.,,
ExerelinPrisonerSellSlave,DialogOptionSelected,$option == exerelinPrisonerSellSlave,"PrisonerSellSlave
SetTextHighlights $slaveValue
FireAll ExerelinPrisonerPostTrade",You have sold the prisoner into slavery for $slaveValue credits.,,
ExerelinPrisonerAfterTrade,ExerelinPrisonerPostTrade,HasItem prisoner,"GetNumSpecialPeople
FireAll ExerelinPrisonerOption",,,
ExerelinPrisonerAfterTradeNoMorePrisoners,ExerelinPrisonerPostTrade,!HasItem prisoner,"$menuState = main 0
ShowDefaultVisual
FireAll PopulateOptions",You have no more prisoners.,,
#END PRISONER OPTIONS,,,,,,
,,,,,,
# bla,,,,,,
ExerelinFlavorTextMarketOmnifactory,TradePanelFlavorText,"$global.tradePanelMode == MARKET
$market.id == omnifac","AddText ""The Omnifactory's main loading bay is a dark, brooding chamber gaping cavernously around stacks of replicated items - clearly, the maintaining AI lacks the cleanliness sensibility of the average human. A loading bots shuffles about with large crates in hand as nano-fabricators hum in the distance."" textGrayColor",,,
ExerelinMarketOptionIntel,DialogOptionSelected,$option == exerelinMarketIntel,OpenCoreTab INTEL $tradeMode,,,
,,,,,,
# vanilla overrides,,,,,,
marketPostOpenInhospitable,MarketPostOpen,"$hasMarket
RepIsAtBest $faction.id INHOSPITABLE
!IsPirateFaction $faction.id","FireBest PickSneakType
FireAll PopulateOptions","$TheFactionLong is $relAdjective towards you, and the port authority refuses your request for docking clearance.",,
marketPostOpenInhospitablePirates,MarketPostOpen,"$hasMarket
RepIsAtBest $faction.id VENGEFUL
IsPirateFaction $faction.id","FireBest PickSneakType
FireAll PopulateOptions","You're rather well known among $theFaction, and not for the right reasons, as far as they're concerned.",,
marketPostOpenPiratesHostile,MarketPostOpen,"$hasMarket
IsPirateFaction $faction.id
RepIsAtBest $faction.id INHOSPITABLE
RepIsAtWorst $faction.id HOSTILE","$menuState = main 0
$tradeMode = OPEN 0
FireAll PopulateOptions","While $theFaction are generally $relAdjective towards you, that's not all that different from how they see other rival captains. The port authority, such as it is, grants you docking clearance after only a slight delay.",,
