{
    "uniqueModClassName":"data.scripts.ExigencyModPlugin", # String
    "factionNiceName":"Exigency Corp", # String
    "playableFaction":"true", # Boolean
    "isPirateNeutral":"false", # Boolean

    "stationInteriorIllustrationKeys":["cargo_loading"], # String array

    "changeSystemSpecsOnSystemLockdown":"false", # Boolean
    "preferredBackgroundImagePath":"", # String
    "preferredStarType":"", # String
    "preferredStarLight":"", # String, 0xFFFFFF

    "stationNameSuffixes":["Base", "Orbital", "Trading Post", "HQ", "Post", "Dock", "Mantle", "Ledge", "Customs", "Port", "Quey", "Terminal", "Exchange", "View", "Wall", "Habitat", "Shipyard"], # String array

    "crewExpereinceLevelIncreaseChance":0.0, # Double, 0 - 1.0
    "baseFleetCostMultiplier":1.0, # Double

    "customRebelFaction":"", # String
    "customRebelFleetId":"", # String
    "rebelFleetSuffix":"Splinter Group", # String

    "smallAttackFleetName":"Recon", # String
    "mediumAttackFleetName":"Battle Group", # String
    "largeAttackFleetName":"Harbinger Fleet", # String

    "smallDefenceFleetName":"Picket Defense", # String
    "mediumDefenceFleetName":"Defense Fleet", # String
    "largeDefenceFleetName":"Bulwark Fleet", # String

    "smallPatrolFleetName":"Lookout", # String
    "mediumPatrolFleetName":"Patrol Fleet", # String
    "largePatrolFleetName":"Heavy Patrol", # String

    "asteroidMiningFleetName":"Asteroid Mining Fleet", # String
    "gasMiningFleetName":"Gas Mining Fleet", # String
    "logisticsFleetName":"Logistics Convoy", # String
    "boardingFleetName":"Boarding Fleet", # String
    "commandFleetName":"Command Fleet", # String

    "positiveDiplomacyExtra":0, # Integer
    "negativeDiplomacyExtra":0, # Integer
    "factionsLiked":[], # String array
    "factionsDisliked":["exipirated"], # String array

    "freighterVariants":["buffalo_Standard"], # String array
    "tankerVariants":["phaeton_Standard"], # String array
    "miningVariantsOrWings":["mining_drone_wing"], # String array

    "troopTransportVariants":["valkyrie_Elite"], # String array
    "superFreighterVariants":["atlas_Standard"], # String array
}