{
    "uniqueModClassName":"data.scripts.world.vayraKadurGen", # String
    "factionNiceName":"Qamar Insurgency", # String
    "playableFaction":"true", # Boolean

    "stationInteriorIllustrationKeys":["hound_hangar"], # String array

    "changeSystemSpecsOnSystemLockdown":"false", # Boolean
    "preferredBackgroundImagePath":"", # String
    "preferredStarType":"", # String
    "preferredStarLight":"", # String, 0xFFFFFF

    "stationNameSuffixes":["Base", "Orbital", "Trading Post", "HQ", "Post", "Dock", "Mantle", "Ledge", "Port", "Quey", "Habitat", "Shipyard"], # String array

    "crewExpereinceLevelIncreaseChance":0.0, # Double, 0 - 1.0
    "baseFleetCostMultiplier":1.0, # Double

    "customRebelFaction":"", # String
    "customRebelFleetId":"", # String
    "rebelFleetSuffix":"Heretics", # String

    "smallAttackFleetName":"Martyrs", # String
    "mediumAttackFleetName":"Partisans", # String
    "largeAttackFleetName":"Holy War Fleet", # String

    "smallDefenceFleetName":"Militia", # String
    "mediumDefenceFleetName":"Guard Fleet", # String
    "largeDefenceFleetName":"System Defense Fleet", # String

    "smallPatrolFleetName":"Spotters", # String
    "mediumPatrolFleetName":"Warden Patrol", # String
    "largePatrolFleetName":"Garrison Fleet", # String

    "asteroidMiningFleetName":"Asteroid Mining Fleet", # String
    "gasMiningFleetName":"Gas Mining Fleet", # String
    "logisticsFleetName":"Aid Convoy", # String
    "boardingFleetName":"Boarding Fleet", # String
    "commandFleetName":"Command Fleet", # String

    "positiveDiplomacyExtra":0, # Integer
    "negativeDiplomacyExtra":0, # Integer
    "factionsLiked":[], # String array
    "factionsDisliked":[], # String array

    "freighterVariants":["khs_sirocco_Standard", "khs_mutt_acehigh"], # String array
    "tankerVariants":["khs_djinn_Standard", "khs_mistral_Light"], # String array
    "miningVariantsOrWings":["mining_drone_wing"], # String array

    "troopTransportVariants":["valkyrie_Elite"], # String array
    "superFreighterVariants":["atlas_Standard"], # String array

    "carrierVariants":["khs_vulture_acehigh", "khs_seraph_acehigh"], # String array

    "fighterWings":["talon_wing",
                    "piranha_wing",
                    "broadsword_wing"], # String array

    "frigateVariants":[ "khs_buzzard_pd",
                        "khs_hyena_acehigh",
                        "khs_vulture_acehigh"], # String array

    "destroyerVariants":[   "khs_falchion_acehigh",
                            "enforcer_Outdated"], # String array

    "cruiserVariants":[ "khs_golem_acehigh",
                        "khs_leviathan_outdated",
                        "dominator_Support",
                        "khs_sphinx_acehigh"], # String array

    "capitalVariants":[ "khs_behemoth_acehigh",
                        "khs_seraph_acehigh"], # String array

    "startingVariants":["khs_hyena_acehigh", "khs_buzzard_pd"], # String array
}