{
    "uniqueModClassName":"data.scripts.TheNomadsModPlugin", # String
    "factionNiceName":"Nomads", # String
    "playableFaction":"true", # Boolean

    "stationInteriorIllustrationKeys":["desert_moons_ruins"], # String array

    "changeSystemSpecsOnSystemLockdown":"false", # Boolean
    "preferredBackgroundImagePath":"graphics/backgrounds/background2.jpg", # String
    "preferredStarType":"star_blue", # String
    "preferredStarLight":"160,160,255", # String, 0xFFFFFF

    "stationNameSuffixes":["Refuge", "Waystation", "Port", "Outpost", "Shelter"], # String array

    "crewExpereinceLevelIncreaseChance":0.0, # Double, 0 - 1.0
    "baseFleetCostMultiplier":1.1, # Double

    "customRebelFaction":"", # String
    "customRebelFleetId":"", # String
    "rebelFleetSuffix":"Traitors", # String

    "smallAttackFleetName":"Death Commandos", # String
    "mediumAttackFleetName":"Battle Group", # String
    "largeAttackFleetName":"Jihad Death Fleet", # String

    "smallDefenceFleetName":"Long-Range Scout", # String
    "mediumDefenceFleetName":"Royal Guard", # String
    "largeDefenceFleetName":"Carrier Group", # String

    "smallPatrolFleetName":"Scout", # String
    "mediumPatrolFleetName":"Battle Group", # String
    "largePatrolFleetName":"Carrier Group", # String

    "asteroidMiningFleetName":"Asteroid Mining Fleet", # String
    "gasMiningFleetName":"Gas Mining Fleet", # String
    "logisticsFleetName":"Colony Transport Group", # String
    "boardingFleetName":"Boarding Fleet", # String
    "commandFleetName":"Royal Command Fleet", # String

    "positiveDiplomacyExtra":0, # Integer
    "negativeDiplomacyExtra":0, # Integer
    "factionsLiked":[], # String array
    "factionsDisliked":[], # String array

    "freighterVariants":["nom_flycatcher_carrier"], # String array
    "tankerVariants":["phaeton_Standard"], # String array
    "miningVariantsOrWings":["mining_drone_wing"], # String array

    "troopTransportVariants":["valkyrie_Elite"], # String array
    "superFreighterVariants":["atlas_Standard"], # String array

    "carrierVariants":["nom_flycatcher_carrier", "nom_gila_monster_antibattleship"], # String array

    "fighterWings":["nom_fang_wing",
                    "nom_toad_wing",
                    "nom_iguana_wing",
                    "nom_scarab_wing"], # String array

    "frigateVariants":[ "nom_death_bloom_strike",
                        "nom_yellowjacket_sniper",
                        "nom_wurm_assault"], # String array

    "destroyerVariants":[   "nom_komodo_mk2_assault",
                            "nom_komodo_assault",
                            "nom_scorpion_assault",
                            "nom_roadrunner_pursuit",
                            "nom_flycatcher_carrier"], # String array

    "cruiserVariants":[ "nom_rattlesnake_assault"], # String array

    "capitalVariants":[ "nom_gila_monster_antibattleship",
                        "nom_sandstorm_assault"], # String array

    "startingVariants":["nom_wurm_assault", "nom_yellowjacket_sniper"], # String array
}