{
    "uniqueModClassName":"data.scripts.JunkPiratesModPlugin", # String
    "factionNiceName":"P.A.C.K", # String
    "playableFaction":"true", # Boolean

    "stationInteriorIllustrationKeys":["cargo_loading"], # String array

    "changeSystemSpecsOnSystemLockdown":"false", # Boolean
    "preferredBackgroundImagePath":"", # String
    "preferredStarType":"", # String
    "preferredStarLight":"", # String, 0xFFFFFF

    "stationNameSuffixes":["Base", "Orbital", "Trading Post", "HQ", "Post", "Dock", "Mantle", "Ledge", "Customs", "Port", "Quey", "Terminal", "Exchange", "View", "Wall", "Habitat", "Shipyard"], # String array

    "crewExpereinceLevelIncreaseChance":0.0, # Double, 0 - 1.0
    "baseFleetCostMultiplier":0.9, # Double

    "customRebelFaction":"", # String
    "customRebelFleetId":"", # String
    "rebelFleetSuffix":"Splinter Group", # String

    "smallAttackFleetName":"Nose", # String
    "mediumAttackFleetName":"Flank", # String
    "largeAttackFleetName":"Vanguard", # String

    "smallDefenceFleetName":"Picket Defense", # String
    "mediumDefenceFleetName":"Defense Fleet", # String
    "largeDefenceFleetName":"Kollective Mass", # String

    "smallPatrolFleetName":"Lookout Fleet", # String
    "mediumPatrolFleetName":"Warden Patrol", # String
    "largePatrolFleetName":"Flotilla", # String

    "asteroidMiningFleetName":"Asteroid Mining Fleet", # String
    "gasMiningFleetName":"Gas Mining Fleet", # String
    "logisticsFleetName":"Supply Convoy", # String
    "boardingFleetName":"Boarding Fleet", # String
    "commandFleetName":"Command Fleet", # String

    "positiveDiplomacyExtra":0, # Integer
    "negativeDiplomacyExtra":0, # Integer
    "factionsLiked":[], # String array
    "factionsDisliked":[], # String array

    "freighterVariants":["pack_samoyed_Standard"], # String array
    "tankerVariants":["dram_Light"], # String array
    "miningVariantsOrWings":["mining_drone_wing"], # String array

    "troopTransportVariants":["valkyrie_Elite"], # String array
    "superFreighterVariants":["atlas_Standard"], # String array

    "carrierVariants":["condor_FS"], # String array

    "fighterWings":["talon_wing"], # String array

    "frigateVariants":["pack_wirefox_Assault",
                       "pack_wirefox_Standard",
                       "pack_bedlington_Standard",
                       "pack_samoyed_decoupled_Standard",
                       "pack_schnauzer_CS",
                       "pack_schnauzer_PD",
                       "pack_schnauzer_Standard"], # String array

    "destroyerVariants":["pack_sharpei_Assault",
                         "pack_sharpei_Standard",
                         "pack_pitbull_Standard",
                         "pack_komondor_Standard",
                         "pack_komondor_Strike",
                         "pack_komondor_Support",
                         "pack_BRT_Guard",
                         "pack_BRT_Strike",
                         "pack_BRT_Support",], # String array

    "cruiserVariants":["pack_ridgeback_Standard",
                       "pack_ridgeback_x_Standard",
                       "pack_mastiff_Assault",
                       "pack_mastiff_Elite",
                       "pack_mastiff_Standard"], # String array

    "capitalVariants":["pack_ridgeback_x_Standard"], # String array

    "startingVariants":["pack_wirefox_Standard", "pack_bedlington_Standard"], # String array
}