{
    "uniqueModClassName":"data.scripts.world.pnModPlugin", # String
    "factionNiceName":"P9 Colony Group", # String
    "playableFaction":"true", # Boolean

    "stationInteriorIllustrationKeys":["cargo_loading"], # String array

    "changeSystemSpecsOnSystemLockdown":"false", # Boolean
    "preferredBackgroundImagePath":"", # String
    "preferredStarType":"", # String
    "preferredStarLight":"", # String, 0xFFFFFF

    "stationNameSuffixes":["Base", "Orbital", "Trading Post", "HQ", "Post", "Dock", "Mantle", "Ledge", "Customs", "Port", "Quey", "Terminal", "Exchange", "View", "Wall", "Habitat", "Shipyard"], # String array

    "crewExpereinceLevelIncreaseChance":0.0, # Double, 0 - 1.0
    "baseFleetCostMultiplier":1.0, # Double

    "customRebelFaction":"", # String
    "customRebelFleetId":"", # String
    "rebelFleetSuffix":"Traitors", # String

    "smallAttackFleetName":"Scout", # String
    "mediumAttackFleetName":"Strike Group", # String
    "largeAttackFleetName":"Armada", # String

    "smallDefenceFleetName":"Watch Fleet", # String
    "mediumDefenceFleetName":"Guard Fleet", # String
    "largeDefenceFleetName":"Garrison Fleet", # String

    "smallPatrolFleetName":"Lookout", # String
    "mediumPatrolFleetName":"Patrol Fleet", # String
    "largePatrolFleetName":"Patrol Division", # String

    "asteroidMiningFleetName":"Asteroid Mining Fleet", # String
    "gasMiningFleetName":"Gas Mining Fleet", # String
    "logisticsFleetName":"Logistics Convoy", # String
    "boardingFleetName":"Boarding Fleet", # String
    "commandFleetName":"Command Fleet", # String

    "positiveDiplomacyExtra":0, # Integer
    "negativeDiplomacyExtra":0, # Integer
    "factionsLiked":[], # String array
    "factionsDisliked":[], # String array

    "freighterVariants":["pn_tick", "cs_pn_mite", "as_pn_mite"], # String array
    "tankerVariants":["pn_tick"], # String array
    "miningVariantsOrWings":["pn_mlmv_wing"], # String array

    "troopTransportVariants":["pn_valkyrie"], # String array
    "superFreighterVariants":["atlas_Standard"], # String array

    "carrierVariants":["pn_tick", "pn_cimex"], # String array

    "fighterWings":["pn_saksh-t_turret_wing",
                    "pn_stress_wing",
                    "pn_mlmv_wing",
                    "pn_spore-mk3_variant_wing"], # String array

    "frigateVariants":["as_pn_rs",
                       "cs_pn_rs",
                       "as_pn_sike",
                       "cs_pn_sike",
                       "as_pn_sike-m",
                       "cs_pn_spore",
                       "pn_spore",
                       "pn_spore-mk2",
                       "pn_mite-s"], # String array

    "destroyerVariants":[   "pn_korlo-skt_elite",
                            "lr_pn_sl-t2",
                            "as_pn_sl-t2",
                            "as_pn_sl-t3"], # String array

    "cruiserVariants":["as_pn_korlo-skt",
                       "lr_pn_korlo-skt",
                       "cs_pn_kaala",
                       "pn_cimex",
                       "pn_silverfish-mpk"], # String array

    "capitalVariants":["pn_samaa-dsi",
                       "as_pn_samaa-ebm"], # String array

    "startingVariants":["cs_pn_sike", "as_pn_rs", "cs_pn_mite"], # String array
}